CVE-2005-3660: Fix unknown
CVE-2007-3719: Fix unknown
CVE-2008-2544: Fix unknown
CVE-2008-4609: Fix unknown
CVE-2010-4563: Fix unknown
CVE-2010-5321: Fix unknown
CVE-2011-4916: Fix unknown
CVE-2011-4917: Fix unknown
CVE-2012-4542: Fix unknown
CVE-2013-7445: Fix unknown
CVE-2015-2877: Fix unknown
CVE-2016-10723: Fix not seen in stream
CVE-2016-8660: Fix unknown
CVE-2017-13168: Fixed with 4.17.6
CVE-2017-13693: Fix unknown
CVE-2017-13694: Fix unknown
CVE-2018-10840: Fixed with 4.17.3
CVE-2018-10853: Fixed with 4.17.2
CVE-2018-10876: Fixed with 4.17.6
CVE-2018-10877: Fixed with 4.17.6
CVE-2018-10878: Fixed with 4.17.6
CVE-2018-10879: Fixed with 4.17.6
CVE-2018-10880: Fixed with 4.17.6
CVE-2018-10881: Fixed with 4.17.6
CVE-2018-10882: Fixed with 4.17.6
CVE-2018-10883: Fixed with 4.17.6
CVE-2018-10902: Fixed with 4.17.10
CVE-2018-1118: Fixed with 4.17.3
CVE-2018-1121: Fix unknown
CVE-2018-1128: Fix not seen in stream
CVE-2018-1129: Fix not seen in stream
CVE-2018-11412: Fixed with 4.17.3
CVE-2018-12126: Fix not seen in stream
CVE-2018-12127: Fix not seen in stream
CVE-2018-12130: Fix not seen in stream
CVE-2018-12207: Fix not seen in stream
CVE-2018-12232: Fixed with 4.17.3
CVE-2018-12233: Fixed with 4.17.14
CVE-2018-12633: Fixed with 4.17.4
CVE-2018-12714: Fixed with 4.17.4
CVE-2018-12896: Fix not seen in stream
CVE-2018-12904: Fixed with 4.17.2
CVE-2018-12928: Fix unknown
CVE-2018-12929: Fix unknown
CVE-2018-12930: Fix unknown
CVE-2018-12931: Fix unknown
CVE-2018-13053: Fix not seen in stream
CVE-2018-13093: Fixed with 4.17.14
CVE-2018-13094: Fixed with 4.17.14
CVE-2018-13095: Fix not seen in stream
CVE-2018-13096: Fix not seen in stream
CVE-2018-13097: Fix not seen in stream
CVE-2018-13098: Fix not seen in stream
CVE-2018-13099: Fix not seen in stream
CVE-2018-13100: Fix not seen in stream
CVE-2018-13405: Fixed with 4.17.7
CVE-2018-13406: Fixed with 4.17.4
CVE-2018-14609: Fix not seen in stream
CVE-2018-14610: Fix not seen in stream
CVE-2018-14611: Fix not seen in stream
CVE-2018-14612: Fix not seen in stream
CVE-2018-14613: Fix not seen in stream
CVE-2018-14614: Fix not seen in stream
CVE-2018-14615: Fix not seen in stream
CVE-2018-14616: Fix not seen in stream
CVE-2018-14617: Fix not seen in stream
CVE-2018-14625: Fix not seen in stream
CVE-2018-14633: Fix not seen in stream
CVE-2018-14678: Fixed with 4.17.13
CVE-2018-14734: Fixed with 4.17.12
CVE-2018-15471: Fix not seen in stream
CVE-2018-15572: Fixed with 4.17.15
CVE-2018-15594: Fixed with 4.17.15
CVE-2018-16276: Fixed with 4.17.7
CVE-2018-16658: Fix not seen in stream
CVE-2018-16862: Fix not seen in stream
CVE-2018-16871: Fix not seen in stream
CVE-2018-16880: Fix not seen in stream
CVE-2018-16882: Fix not seen in stream
CVE-2018-16884: Fix not seen in stream
CVE-2018-17182: Fix not seen in stream
CVE-2018-17972: Fix not seen in stream
CVE-2018-17977: Fix unknown
CVE-2018-18021: Fix not seen in stream
CVE-2018-18281: Fix not seen in stream
CVE-2018-18397: Fix not seen in stream
CVE-2018-18445: Fix not seen in stream
CVE-2018-18710: Fix not seen in stream
CVE-2018-18955: Fix not seen in stream
CVE-2018-19407: Fix not seen in stream
CVE-2018-19824: Fix not seen in stream
CVE-2018-19854: Fix not seen in stream
CVE-2018-19985: Fix not seen in stream
CVE-2018-20169: Fix not seen in stream
CVE-2018-20511: Fix not seen in stream
CVE-2018-20669: Fix not seen in stream
CVE-2018-20784: Fix not seen in stream
CVE-2018-20836: Fix not seen in stream
CVE-2018-20854: Fix not seen in stream
CVE-2018-20855: Fix not seen in stream
CVE-2018-20856: Fix not seen in stream
CVE-2018-20976: Fix not seen in stream
CVE-2018-21008: Fix not seen in stream
CVE-2018-3620: Fixed with 4.17.15
CVE-2018-3646: Fixed with 4.17.15
CVE-2018-3693: Fixed with 4.17.19
CVE-2018-5390: Fixed with 4.17.11
CVE-2018-5391: Fix not seen in stream
CVE-2018-7755: Fix not seen in stream
CVE-2018-9363: Fixed with 4.17.16
CVE-2018-9516: Fixed with 4.17.6
CVE-2019-0136: Fix not seen in stream
CVE-2019-0145: Fix not seen in stream
CVE-2019-0146: Fix not seen in stream
CVE-2019-0147: Fix not seen in stream
CVE-2019-0148: Fix not seen in stream
CVE-2019-0149: Fix not seen in stream
CVE-2019-0154: Fix not seen in stream
CVE-2019-0155: Fix not seen in stream
CVE-2019-10124: Fix not seen in stream
CVE-2019-10126: Fix not seen in stream
CVE-2019-10142: Fix not seen in stream
CVE-2019-10207: Fix not seen in stream
CVE-2019-10220: Fix not seen in stream
CVE-2019-10638: Fix not seen in stream
CVE-2019-10639: Fix not seen in stream
CVE-2019-11085: Fix not seen in stream
CVE-2019-11091: Fix not seen in stream
CVE-2019-11135: Fix not seen in stream
CVE-2019-11191: Fix not seen in stream
CVE-2019-1125: Fix not seen in stream
CVE-2019-11477: Fix not seen in stream
CVE-2019-11478: Fix not seen in stream
CVE-2019-11479: Fix not seen in stream
CVE-2019-11486: Fix not seen in stream
CVE-2019-11487: Fix not seen in stream
CVE-2019-11599: Fix not seen in stream
CVE-2019-11810: Fix not seen in stream
CVE-2019-11815: Fix not seen in stream
CVE-2019-11833: Fix not seen in stream
CVE-2019-11884: Fix not seen in stream
CVE-2019-12378: Fix not seen in stream
CVE-2019-12379: Fix not seen in stream
CVE-2019-12380: Fix not seen in stream
CVE-2019-12381: Fix not seen in stream
CVE-2019-12382: Fix not seen in stream
CVE-2019-12455: Fix not seen in stream
CVE-2019-12456: Fix unknown
CVE-2019-12614: Fix not seen in stream
CVE-2019-12615: Fix not seen in stream
CVE-2019-12817: Fix not seen in stream
CVE-2019-12818: Fix not seen in stream
CVE-2019-12819: Fix not seen in stream
CVE-2019-12881: Fixed with 4.17-rc6
CVE-2019-12984: Fix not seen in stream
CVE-2019-13233: Fix not seen in stream
CVE-2019-13272: Fix not seen in stream
CVE-2019-13631: Fix not seen in stream
CVE-2019-13648: Fix not seen in stream
CVE-2019-14283: Fix not seen in stream
CVE-2019-14284: Fix not seen in stream
CVE-2019-14615: Fix not seen in stream
CVE-2019-14814: Fix not seen in stream
CVE-2019-14815: Fix not seen in stream
CVE-2019-14816: Fix not seen in stream
CVE-2019-14821: Fix not seen in stream
CVE-2019-14835: Fix not seen in stream
CVE-2019-14895: Fix not seen in stream
CVE-2019-14896: Fix not seen in stream
CVE-2019-14897: Fix not seen in stream
CVE-2019-14901: Fix not seen in stream
CVE-2019-15030: Fix not seen in stream
CVE-2019-15031: Fix not seen in stream
CVE-2019-15090: Fix not seen in stream
CVE-2019-15098: Fix not seen in stream
CVE-2019-15099: Fix not seen in stream
CVE-2019-15117: Fix not seen in stream
CVE-2019-15118: Fix not seen in stream
CVE-2019-15211: Fix not seen in stream
CVE-2019-15212: Fix not seen in stream
CVE-2019-15214: Fix not seen in stream
CVE-2019-15215: Fix not seen in stream
CVE-2019-15216: Fix not seen in stream
CVE-2019-15217: Fix not seen in stream
CVE-2019-15218: Fix not seen in stream
CVE-2019-15219: Fix not seen in stream
CVE-2019-15220: Fix not seen in stream
CVE-2019-15221: Fix not seen in stream
CVE-2019-15222: Fix not seen in stream
CVE-2019-15223: Fix not seen in stream
CVE-2019-15239: Fix not seen in stream
CVE-2019-15290: Fix unknown
CVE-2019-15291: Fix not seen in stream
CVE-2019-15292: Fix not seen in stream
CVE-2019-15504: Fix not seen in stream
CVE-2019-15505: Fix not seen in stream
CVE-2019-15538: Fix not seen in stream
CVE-2019-15666: Fix not seen in stream
CVE-2019-15807: Fix not seen in stream
CVE-2019-15902: Fix not seen in stream
CVE-2019-15916: Fix not seen in stream
CVE-2019-15917: Fix not seen in stream
CVE-2019-15918: Fix not seen in stream
CVE-2019-15921: Fix not seen in stream
CVE-2019-15924: Fix not seen in stream
CVE-2019-15925: Fix not seen in stream
CVE-2019-15926: Fix not seen in stream
CVE-2019-15927: Fix not seen in stream
CVE-2019-16089: Fix unknown
CVE-2019-16229: Fix not seen in stream
CVE-2019-16230: Fix not seen in stream
CVE-2019-16231: Fix not seen in stream
CVE-2019-16232: Fix not seen in stream
CVE-2019-16233: Fix not seen in stream
CVE-2019-16234: Fix not seen in stream
CVE-2019-16413: Fix not seen in stream
CVE-2019-16746: Fix not seen in stream
CVE-2019-16994: Fix not seen in stream
CVE-2019-16995: Fix not seen in stream
CVE-2019-17052: Fix not seen in stream
CVE-2019-17053: Fix not seen in stream
CVE-2019-17054: Fix not seen in stream
CVE-2019-17055: Fix not seen in stream
CVE-2019-17056: Fix not seen in stream
CVE-2019-17075: Fix not seen in stream
CVE-2019-17133: Fix not seen in stream
CVE-2019-17351: Fix not seen in stream
CVE-2019-17666: Fix not seen in stream
CVE-2019-18282: Fix not seen in stream
CVE-2019-18660: Fix not seen in stream
CVE-2019-18680: Fix not seen in stream
CVE-2019-18683: Fix not seen in stream
CVE-2019-18786: Fix not seen in stream
CVE-2019-18805: Fix not seen in stream
CVE-2019-18806: Fix not seen in stream
CVE-2019-18808: Fix not seen in stream
CVE-2019-18809: Fix not seen in stream
CVE-2019-18885: Fix not seen in stream
CVE-2019-19036: Fix not seen in stream
CVE-2019-19039: Fix not seen in stream
CVE-2019-19045: Fix not seen in stream
CVE-2019-19046: Fix not seen in stream
CVE-2019-19048: Fix not seen in stream
CVE-2019-19049: Fix not seen in stream
CVE-2019-19052: Fix not seen in stream
CVE-2019-19054: Fix not seen in stream
CVE-2019-19056: Fix not seen in stream
CVE-2019-19057: Fix not seen in stream
CVE-2019-19058: Fix not seen in stream
CVE-2019-19060: Fix not seen in stream
CVE-2019-19061: Fix not seen in stream
CVE-2019-19062: Fix not seen in stream
CVE-2019-19063: Fix not seen in stream
CVE-2019-19065: Fix not seen in stream
CVE-2019-19066: Fix not seen in stream
CVE-2019-19067: Fix not seen in stream
CVE-2019-19068: Fix not seen in stream
CVE-2019-19070: Fix not seen in stream
CVE-2019-19071: Fix not seen in stream
CVE-2019-19072: Fix not seen in stream
CVE-2019-19073: Fix not seen in stream
CVE-2019-19074: Fix not seen in stream
CVE-2019-19075: Fix not seen in stream
CVE-2019-19077: Fix not seen in stream
CVE-2019-19078: Fix not seen in stream
CVE-2019-19082: Fix not seen in stream
CVE-2019-19083: Fixed with 4.17-rc1
CVE-2019-19227: Fix not seen in stream
CVE-2019-19241: Fix not seen in stream
CVE-2019-19319: Fix not seen in stream
CVE-2019-19332: Fix not seen in stream
CVE-2019-19377: Fix not seen in stream
CVE-2019-19378: Fix unknown
CVE-2019-19447: Fix not seen in stream
CVE-2019-19448: Fix not seen in stream
CVE-2019-19449: Fix not seen in stream
CVE-2019-19462: Fix not seen in stream
CVE-2019-19523: Fix not seen in stream
CVE-2019-19524: Fix not seen in stream
CVE-2019-19525: Fix not seen in stream
CVE-2019-19526: Fix not seen in stream
CVE-2019-19527: Fix not seen in stream
CVE-2019-19528: Fix not seen in stream
CVE-2019-19529: Fix not seen in stream
CVE-2019-19530: Fix not seen in stream
CVE-2019-19531: Fix not seen in stream
CVE-2019-19532: Fix not seen in stream
CVE-2019-19533: Fix not seen in stream
CVE-2019-19534: Fix not seen in stream
CVE-2019-19535: Fix not seen in stream
CVE-2019-19536: Fix not seen in stream
CVE-2019-19537: Fix not seen in stream
CVE-2019-19543: Fix not seen in stream
CVE-2019-19767: Fix not seen in stream
CVE-2019-19768: Fix not seen in stream
CVE-2019-19770: Fix not seen in stream
CVE-2019-19813: Fix not seen in stream
CVE-2019-19814: Fix unknown
CVE-2019-19815: Fix not seen in stream
CVE-2019-19816: Fix not seen in stream
CVE-2019-19922: Fix not seen in stream
CVE-2019-19927: Fix not seen in stream
CVE-2019-19965: Fix not seen in stream
CVE-2019-19966: Fix not seen in stream
CVE-2019-1999: Fix not seen in stream
CVE-2019-20054: Fix not seen in stream
CVE-2019-20095: Fix not seen in stream
CVE-2019-20096: Fix not seen in stream
CVE-2019-2025: Fix not seen in stream
CVE-2019-20636: Fix not seen in stream
CVE-2019-20794: Fix unknown
CVE-2019-20806: Fix not seen in stream
CVE-2019-20810: Fix not seen in stream
CVE-2019-20811: Fix not seen in stream
CVE-2019-20812: Fix not seen in stream
CVE-2019-20908: Fix not seen in stream
CVE-2019-20934: Fix not seen in stream
CVE-2019-2101: Fix not seen in stream
CVE-2019-2181: Fix not seen in stream
CVE-2019-2213: Fix not seen in stream
CVE-2019-25045: Fix not seen in stream
CVE-2019-3016: Fix not seen in stream
CVE-2019-3459: Fix not seen in stream
CVE-2019-3460: Fix not seen in stream
CVE-2019-3701: Fix not seen in stream
CVE-2019-3846: Fix not seen in stream
CVE-2019-3874: Fix not seen in stream
CVE-2019-3882: Fix not seen in stream
CVE-2019-3887: Fix not seen in stream
CVE-2019-3892: Fix not seen in stream
CVE-2019-3900: Fix not seen in stream
CVE-2019-5108: Fix not seen in stream
CVE-2019-5489: Fix not seen in stream
CVE-2019-6133: Fix not seen in stream
CVE-2019-6974: Fix not seen in stream
CVE-2019-7221: Fix not seen in stream
CVE-2019-7222: Fix not seen in stream
CVE-2019-7308: Fix not seen in stream
CVE-2019-8912: Fix not seen in stream
CVE-2019-8956: Fix not seen in stream
CVE-2019-8980: Fix not seen in stream
CVE-2019-9162: Fix not seen in stream
CVE-2019-9213: Fix not seen in stream
CVE-2019-9245: Fix not seen in stream
CVE-2019-9445: Fix not seen in stream
CVE-2019-9453: Fix not seen in stream
CVE-2019-9455: Fix not seen in stream
CVE-2019-9458: Fix not seen in stream
CVE-2019-9466: Fix not seen in stream
CVE-2019-9500: Fix not seen in stream
CVE-2019-9503: Fix not seen in stream
CVE-2019-9506: Fix not seen in stream
CVE-2020-0009: Fix not seen in stream
CVE-2020-0067: Fix not seen in stream
CVE-2020-0255: Fix not seen in stream
CVE-2020-0305: Fix not seen in stream
CVE-2020-0347: Fix unknown
CVE-2020-0404: Fix not seen in stream
CVE-2020-0423: Fix not seen in stream
CVE-2020-0427: Fix not seen in stream
CVE-2020-0430: Fixed with 4.17.7
CVE-2020-0431: Fix not seen in stream
CVE-2020-0432: Fix not seen in stream
CVE-2020-0433: Fix not seen in stream
CVE-2020-0435: Fix not seen in stream
CVE-2020-0444: Fix not seen in stream
CVE-2020-0465: Fix not seen in stream
CVE-2020-0466: Fix not seen in stream
CVE-2020-0543: Fix not seen in stream
CVE-2020-10135: Fix not seen in stream
CVE-2020-10690: Fix not seen in stream
CVE-2020-10708: Fix unknown
CVE-2020-10711: Fix not seen in stream
CVE-2020-10720: Fix not seen in stream
CVE-2020-10732: Fix not seen in stream
CVE-2020-10751: Fix not seen in stream
CVE-2020-10757: Fix not seen in stream
CVE-2020-10766: Fix not seen in stream
CVE-2020-10767: Fix not seen in stream
CVE-2020-10768: Fix not seen in stream
CVE-2020-10769: Fix not seen in stream
CVE-2020-10773: Fix not seen in stream
CVE-2020-10781: Fix not seen in stream
CVE-2020-10942: Fix not seen in stream
CVE-2020-11494: Fix not seen in stream
CVE-2020-11565: Fix not seen in stream
CVE-2020-11608: Fix not seen in stream
CVE-2020-11609: Fix not seen in stream
CVE-2020-11668: Fix not seen in stream
CVE-2020-11669: Fix not seen in stream
CVE-2020-11725: Fix unknown
CVE-2020-11884: Fix not seen in stream
CVE-2020-12114: Fix not seen in stream
CVE-2020-12351: Fix not seen in stream
CVE-2020-12352: Fix not seen in stream
CVE-2020-12362: Fix not seen in stream
CVE-2020-12363: Fix not seen in stream
CVE-2020-12364: Fix not seen in stream
CVE-2020-12464: Fix not seen in stream
CVE-2020-12465: Fix not seen in stream
CVE-2020-12652: Fix not seen in stream
CVE-2020-12653: Fix not seen in stream
CVE-2020-12654: Fix not seen in stream
CVE-2020-12655: Fix not seen in stream
CVE-2020-12656: Fix not seen in stream
CVE-2020-12657: Fix not seen in stream
CVE-2020-12768: Fix not seen in stream
CVE-2020-12769: Fix not seen in stream
CVE-2020-12770: Fix not seen in stream
CVE-2020-12771: Fix not seen in stream
CVE-2020-12826: Fix not seen in stream
CVE-2020-12888: Fix not seen in stream
CVE-2020-13143: Fix not seen in stream
CVE-2020-13974: Fix not seen in stream
CVE-2020-14304: Fix unknown
CVE-2020-14314: Fix not seen in stream
CVE-2020-14331: Fix not seen in stream
CVE-2020-14351: Fix not seen in stream
CVE-2020-14356: Fix not seen in stream
CVE-2020-14381: Fix not seen in stream
CVE-2020-14385: Fix not seen in stream
CVE-2020-14386: Fix not seen in stream
CVE-2020-14390: Fix not seen in stream
CVE-2020-14416: Fix not seen in stream
CVE-2020-15393: Fix not seen in stream
CVE-2020-15436: Fix not seen in stream
CVE-2020-15437: Fix not seen in stream
CVE-2020-15780: Fix not seen in stream
CVE-2020-15802: Fix unknown
CVE-2020-16119: Fix not seen in stream
CVE-2020-16120: Fix not seen in stream
CVE-2020-16166: Fix not seen in stream
CVE-2020-1749: Fix not seen in stream
CVE-2020-24394: Fix not seen in stream
CVE-2020-24502: Fix unknown
CVE-2020-24503: Fix unknown
CVE-2020-24504: Fix not seen in stream
CVE-2020-24586: Fix not seen in stream
CVE-2020-24587: Fix not seen in stream
CVE-2020-24588: Fix not seen in stream
CVE-2020-25211: Fix not seen in stream
CVE-2020-25212: Fix not seen in stream
CVE-2020-25284: Fix not seen in stream
CVE-2020-25285: Fix not seen in stream
CVE-2020-25641: Fix not seen in stream
CVE-2020-25643: Fix not seen in stream
CVE-2020-25645: Fix not seen in stream
CVE-2020-25656: Fix not seen in stream
CVE-2020-25668: Fix not seen in stream
CVE-2020-25669: Fix not seen in stream
CVE-2020-25670: Fix not seen in stream
CVE-2020-25671: Fix not seen in stream
CVE-2020-25672: Fix not seen in stream
CVE-2020-25673: Fix not seen in stream
CVE-2020-25704: Fix not seen in stream
CVE-2020-25705: Fix not seen in stream
CVE-2020-26088: Fix not seen in stream
CVE-2020-26139: Fix not seen in stream
CVE-2020-26140: Fix unknown
CVE-2020-26141: Fix not seen in stream
CVE-2020-26142: Fix unknown
CVE-2020-26143: Fix unknown
CVE-2020-26145: Fix not seen in stream
CVE-2020-26147: Fix not seen in stream
CVE-2020-26541: Fix not seen in stream
CVE-2020-26555: Fix not seen in stream
CVE-2020-26556: Fix unknown
CVE-2020-26557: Fix unknown
CVE-2020-26558: Fix not seen in stream
CVE-2020-26559: Fix unknown
CVE-2020-26560: Fix unknown
CVE-2020-27066: Fix not seen in stream
CVE-2020-27068: Fix not seen in stream
CVE-2020-2732: Fix not seen in stream
CVE-2020-27673: Fix not seen in stream
CVE-2020-27675: Fix not seen in stream
CVE-2020-27777: Fix not seen in stream
CVE-2020-27784: Fix not seen in stream
CVE-2020-27786: Fix not seen in stream
CVE-2020-27815: Fix not seen in stream
CVE-2020-27820: Fix not seen in stream
CVE-2020-27825: Fix not seen in stream
CVE-2020-27830: Fix not seen in stream
CVE-2020-27835: Fix not seen in stream
CVE-2020-28097: Fix not seen in stream
CVE-2020-28374: Fix not seen in stream
CVE-2020-28915: Fix not seen in stream
CVE-2020-28941: Fix not seen in stream
CVE-2020-28974: Fix not seen in stream
CVE-2020-29368: Fix not seen in stream
CVE-2020-29370: Fix not seen in stream
CVE-2020-29371: Fix not seen in stream
CVE-2020-29374: Fix not seen in stream
CVE-2020-29568: Fix not seen in stream
CVE-2020-29569: Fix not seen in stream
CVE-2020-29660: Fix not seen in stream
CVE-2020-29661: Fix not seen in stream
CVE-2020-35501: Fix unknown
CVE-2020-35508: Fix not seen in stream
CVE-2020-35519: Fix not seen in stream
CVE-2020-36158: Fix not seen in stream
CVE-2020-36310: Fix not seen in stream
CVE-2020-36311: Fix not seen in stream
CVE-2020-36312: Fix not seen in stream
CVE-2020-36313: Fix not seen in stream
CVE-2020-36322: Fix not seen in stream
CVE-2020-36385: Fix not seen in stream
CVE-2020-36386: Fix not seen in stream
CVE-2020-36516: Fix unknown
CVE-2020-36557: Fix not seen in stream
CVE-2020-36558: Fix not seen in stream
CVE-2020-3702: Fix not seen in stream
CVE-2020-4788: Fix not seen in stream
CVE-2020-7053: Fix not seen in stream
CVE-2020-8647: Fix not seen in stream
CVE-2020-8648: Fix not seen in stream
CVE-2020-8649: Fix not seen in stream
CVE-2020-8694: Fix not seen in stream
CVE-2020-8834: Fix not seen in stream
CVE-2020-9383: Fix not seen in stream
CVE-2021-0129: Fix not seen in stream
CVE-2021-0342: Fix not seen in stream
CVE-2021-0399: Fix unknown
CVE-2021-0448: Fix not seen in stream
CVE-2021-0512: Fix not seen in stream
CVE-2021-0605: Fix not seen in stream
CVE-2021-0695: Fix unknown
CVE-2021-0920: Fix not seen in stream
CVE-2021-0929: Fix not seen in stream
CVE-2021-0937: Fix not seen in stream
CVE-2021-0941: Fix not seen in stream
CVE-2021-1048: Fix not seen in stream
CVE-2021-20292: Fix not seen in stream
CVE-2021-20317: Fix not seen in stream
CVE-2021-20320: Fix not seen in stream
CVE-2021-20321: Fix not seen in stream
CVE-2021-20322: Fix not seen in stream
CVE-2021-21781: Fix not seen in stream
CVE-2021-22543: Fix not seen in stream
CVE-2021-22555: Fix not seen in stream
CVE-2021-23133: Fix not seen in stream
CVE-2021-26401: Fix not seen in stream
CVE-2021-26930: Fix not seen in stream
CVE-2021-26931: Fix not seen in stream
CVE-2021-26932: Fix not seen in stream
CVE-2021-27363: Fix not seen in stream
CVE-2021-27364: Fix not seen in stream
CVE-2021-27365: Fix not seen in stream
CVE-2021-28038: Fix not seen in stream
CVE-2021-28660: Fix not seen in stream
CVE-2021-28688: Fix not seen in stream
CVE-2021-28711: Fix not seen in stream
CVE-2021-28712: Fix not seen in stream
CVE-2021-28713: Fix not seen in stream
CVE-2021-28714: Fix not seen in stream
CVE-2021-28715: Fix not seen in stream
CVE-2021-28951: Fix not seen in stream
CVE-2021-28964: Fix not seen in stream
CVE-2021-28971: Fix not seen in stream
CVE-2021-28972: Fix not seen in stream
CVE-2021-29154: Fix not seen in stream
CVE-2021-29155: Fix not seen in stream
CVE-2021-29264: Fix not seen in stream
CVE-2021-29265: Fix not seen in stream
CVE-2021-29647: Fix not seen in stream
CVE-2021-29650: Fix not seen in stream
CVE-2021-30002: Fix not seen in stream
CVE-2021-3178: Fix not seen in stream
CVE-2021-31916: Fix not seen in stream
CVE-2021-32078: Fix not seen in stream
CVE-2021-32399: Fix not seen in stream
CVE-2021-33033: Fix not seen in stream
CVE-2021-33034: Fix not seen in stream
CVE-2021-33061: Fix not seen in stream
CVE-2021-33098: Fix not seen in stream
CVE-2021-3347: Fix not seen in stream
CVE-2021-3348: Fix not seen in stream
CVE-2021-33624: Fix not seen in stream
CVE-2021-33655: Fix not seen in stream
CVE-2021-33656: Fix not seen in stream
CVE-2021-33909: Fix not seen in stream
CVE-2021-3444: Fix not seen in stream
CVE-2021-34556: Fix not seen in stream
CVE-2021-34693: Fix not seen in stream
CVE-2021-3483: Fix not seen in stream
CVE-2021-34981: Fix not seen in stream
CVE-2021-35039: Fix not seen in stream
CVE-2021-3506: Fix not seen in stream
CVE-2021-3542: Fix unknown
CVE-2021-35477: Fix not seen in stream
CVE-2021-3564: Fix not seen in stream
CVE-2021-3573: Fix not seen in stream
CVE-2021-3587: Fix not seen in stream
CVE-2021-3600: Fix not seen in stream
CVE-2021-3609: Fix not seen in stream
CVE-2021-3612: Fix not seen in stream
CVE-2021-3635: Fix not seen in stream
CVE-2021-3640: Fix not seen in stream
CVE-2021-3653: Fix not seen in stream
CVE-2021-3655: Fix not seen in stream
CVE-2021-3656: Fix not seen in stream
CVE-2021-3659: Fix not seen in stream
CVE-2021-3669: Fix not seen in stream
CVE-2021-3679: Fix not seen in stream
CVE-2021-3714: Fix unknown
CVE-2021-3715: Fix not seen in stream
CVE-2021-37159: Fix not seen in stream
CVE-2021-3732: Fix not seen in stream
CVE-2021-3743: Fix not seen in stream
CVE-2021-3744: Fix not seen in stream
CVE-2021-3752: Fix not seen in stream
CVE-2021-3753: Fix not seen in stream
CVE-2021-37576: Fix not seen in stream
CVE-2021-3759: Fix not seen in stream
CVE-2021-3760: Fix not seen in stream
CVE-2021-3764: Fix not seen in stream
CVE-2021-3772: Fix not seen in stream
CVE-2021-38160: Fix not seen in stream
CVE-2021-38198: Fix not seen in stream
CVE-2021-38199: Fix not seen in stream
CVE-2021-38204: Fix not seen in stream
CVE-2021-38205: Fix not seen in stream
CVE-2021-38208: Fix not seen in stream
CVE-2021-38300: Fix not seen in stream
CVE-2021-3847: Fix unknown
CVE-2021-3864: Fix unknown
CVE-2021-3892: Fix unknown
CVE-2021-3894: Fix not seen in stream
CVE-2021-3896: Fix not seen in stream
CVE-2021-39633: Fix not seen in stream
CVE-2021-39634: Fix not seen in stream
CVE-2021-39648: Fix not seen in stream
CVE-2021-39657: Fix not seen in stream
CVE-2021-39685: Fix not seen in stream
CVE-2021-39686: Fix not seen in stream
CVE-2021-39698: Fix not seen in stream
CVE-2021-39711: Fix not seen in stream
CVE-2021-39800: Fix unknown
CVE-2021-39801: Fix unknown
CVE-2021-39802: Fix unknown
CVE-2021-4002: Fix not seen in stream
CVE-2021-4023: Fix not seen in stream
CVE-2021-4037: Fix not seen in stream
CVE-2021-40490: Fix not seen in stream
CVE-2021-4083: Fix not seen in stream
CVE-2021-4135: Fix not seen in stream
CVE-2021-4149: Fix not seen in stream
CVE-2021-4150: Fix not seen in stream
CVE-2021-4155: Fix not seen in stream
CVE-2021-4157: Fix not seen in stream
CVE-2021-4159: Fix not seen in stream
CVE-2021-41864: Fix not seen in stream
CVE-2021-4197: Fix not seen in stream
CVE-2021-42008: Fix not seen in stream
CVE-2021-4202: Fix not seen in stream
CVE-2021-4203: Fix not seen in stream
CVE-2021-4218: Fix not seen in stream
CVE-2021-42252: Fix not seen in stream
CVE-2021-42739: Fix not seen in stream
CVE-2021-43389: Fix not seen in stream
CVE-2021-43975: Fix not seen in stream
CVE-2021-43976: Fix not seen in stream
CVE-2021-44733: Fix not seen in stream
CVE-2021-44879: Fix not seen in stream
CVE-2021-45095: Fix not seen in stream
CVE-2021-45469: Fix not seen in stream
CVE-2021-45485: Fix not seen in stream
CVE-2021-45486: Fix not seen in stream
CVE-2021-45868: Fix not seen in stream
CVE-2022-0001: Fix not seen in stream
CVE-2022-0002: Fix not seen in stream
CVE-2022-0168: Fix not seen in stream
CVE-2022-0322: Fix not seen in stream
CVE-2022-0330: Fix not seen in stream
CVE-2022-0382: Fix not seen in stream
CVE-2022-0400: Fix unknown
CVE-2022-0435: Fix not seen in stream
CVE-2022-0480: Fix not seen in stream
CVE-2022-0487: Fix not seen in stream
CVE-2022-0492: Fix not seen in stream
CVE-2022-0494: Fix not seen in stream
CVE-2022-0617: Fix not seen in stream
CVE-2022-0644: Fix not seen in stream
CVE-2022-0812: Fix not seen in stream
CVE-2022-0850: Fix not seen in stream
CVE-2022-1011: Fix not seen in stream
CVE-2022-1012: Fix not seen in stream
CVE-2022-1016: Fix not seen in stream
CVE-2022-1048: Fix not seen in stream
CVE-2022-1116: Fix unknown
CVE-2022-1184: Fix not seen in stream
CVE-2022-1195: Fix not seen in stream
CVE-2022-1198: Fix not seen in stream
CVE-2022-1199: Fix not seen in stream
CVE-2022-1204: Fix not seen in stream
CVE-2022-1247: Fix unknown
CVE-2022-1263: Fix not seen in stream
CVE-2022-1280: Fix not seen in stream
CVE-2022-1353: Fix not seen in stream
CVE-2022-1419: Fix not seen in stream
CVE-2022-1462: Fix not seen in stream
CVE-2022-1508: Fix not seen in stream
CVE-2022-1652: Fix not seen in stream
CVE-2022-1679: Fix not seen in stream
CVE-2022-1729: Fix not seen in stream
CVE-2022-1734: Fix not seen in stream
CVE-2022-1786: Fix not seen in stream
CVE-2022-1836: Fix not seen in stream
CVE-2022-1966: Fix not seen in stream
CVE-2022-1974: Fix not seen in stream
CVE-2022-1975: Fix not seen in stream
CVE-2022-20008: Fix not seen in stream
CVE-2022-20132: Fix not seen in stream
CVE-2022-20141: Fix not seen in stream
CVE-2022-20148: Fix not seen in stream
CVE-2022-20154: Fix not seen in stream
CVE-2022-20158: Fix not seen in stream
CVE-2022-20166: Fix not seen in stream
CVE-2022-20368: Fix not seen in stream
CVE-2022-20369: Fix not seen in stream
CVE-2022-21123: Fix not seen in stream
CVE-2022-21125: Fix not seen in stream
CVE-2022-21166: Fix not seen in stream
CVE-2022-21385: Fix not seen in stream
CVE-2022-21499: Fix not seen in stream
CVE-2022-2153: Fix not seen in stream
CVE-2022-2209: Fix unknown
CVE-2022-22942: Fix not seen in stream
CVE-2022-23036: Fix not seen in stream
CVE-2022-23037: Fix not seen in stream
CVE-2022-23038: Fix not seen in stream
CVE-2022-23039: Fix not seen in stream
CVE-2022-23040: Fix not seen in stream
CVE-2022-23041: Fix not seen in stream
CVE-2022-23042: Fix not seen in stream
CVE-2022-2318: Fix not seen in stream
CVE-2022-23222: Fix not seen in stream
CVE-2022-2327: Fix not seen in stream
CVE-2022-2380: Fix not seen in stream
CVE-2022-23816: Fix not seen in stream
CVE-2022-23825: Fix unknown
CVE-2022-23960: Fix not seen in stream
CVE-2022-24448: Fix not seen in stream
CVE-2022-24958: Fix not seen in stream
CVE-2022-2503: Fix not seen in stream
CVE-2022-25258: Fix not seen in stream
CVE-2022-25265: Fix unknown
CVE-2022-25375: Fix not seen in stream
CVE-2022-2586: Fix not seen in stream
CVE-2022-2588: Fix not seen in stream
CVE-2022-26365: Fix not seen in stream
CVE-2022-26373: Fix not seen in stream
CVE-2022-26490: Fix not seen in stream
CVE-2022-2663: Fix unknown
CVE-2022-26966: Fix not seen in stream
CVE-2022-27223: Fix not seen in stream
CVE-2022-27666: Fix not seen in stream
CVE-2022-28356: Fix not seen in stream
CVE-2022-28388: Fix not seen in stream
CVE-2022-28389: Fix not seen in stream
CVE-2022-28390: Fix not seen in stream
CVE-2022-29581: Fix not seen in stream
CVE-2022-2961: Fix unknown
CVE-2022-2964: Fix not seen in stream
CVE-2022-2977: Fix not seen in stream
CVE-2022-2978: Fix unknown
CVE-2022-29900: Fix not seen in stream
CVE-2022-29901: Fix not seen in stream
CVE-2022-2991: Fix not seen in stream
CVE-2022-3028: Fix not seen in stream
CVE-2022-30594: Fix not seen in stream
CVE-2022-3061: Fix not seen in stream
CVE-2022-3077: Fix not seen in stream
CVE-2022-3078: Fix not seen in stream
CVE-2022-3169: Fix unknown
CVE-2022-3176: Fix unknown
CVE-2022-3202: Fix not seen in stream
CVE-2022-32250: Fix not seen in stream
CVE-2022-32296: Fix not seen in stream
CVE-2022-32981: Fix not seen in stream
CVE-2022-33740: Fix not seen in stream
CVE-2022-33741: Fix not seen in stream
CVE-2022-33742: Fix not seen in stream
CVE-2022-33744: Fix not seen in stream
CVE-2022-33981: Fix not seen in stream
CVE-2022-34918: Fix not seen in stream
CVE-2022-36123: Fix not seen in stream
CVE-2022-36280: Fix unknown
CVE-2022-36402: Fix unknown
CVE-2022-36879: Fix not seen in stream
CVE-2022-36946: Fix not seen in stream
CVE-2022-38096: Fix unknown
CVE-2022-38457: Fix unknown
CVE-2022-39188: Fix not seen in stream
CVE-2022-39189: Fix not seen in stream
CVE-2022-39190: Fix not seen in stream
CVE-2022-39842: Fix not seen in stream
CVE-2022-40133: Fix unknown
CVE-2022-40307: Fix not seen in stream
CVE-2022-40768: Fix unknown
